<?xml version="1.0" encoding="UTF-8"?>
<svg width="47px" height="47px" viewBox="0 0 47 47" version="1.1" xmlns="http://www.w3.org/2000/svg" xmlns:xlink="http://www.w3.org/1999/xlink">
    <!-- Generator: Sketch 52.1 (67048) - http://www.bohemiancoding.com/sketch -->
    <title>twitter (2)</title>
    <desc>Created with Sketch.</desc>
    <g id="Page-1" stroke="none" stroke-width="1" fill="none" fill-rule="evenodd">
        <g id="contact-us-copy-2" transform="translate(-844.000000, -799.000000)" fill="#626161" fill-rule="nonzero">
            <g id="Group-23" transform="translate(147.000000, 604.000000)">
                <g id="Group-25" transform="translate(587.000000, 195.000000)">
                    <g id="Group">
                        <g id="twitter-(2)" transform="translate(110.357143, 0.000000)">
                            <path d="M39.7381056,6.81801683 C35.3414618,2.42128209 29.4957587,0 23.2780612,0 C17.0603638,0 11.2146606,2.42128209 6.81801683,6.81801683 C2.42128209,11.2146606 0,17.0603638 0,23.2780612 C0,29.4957587 2.42128209,35.3414618 6.81801683,39.7381056 C11.2146606,44.1348404 17.0603638,46.5561224 23.2780612,46.5561224 C29.4957587,46.5561224 35.3414618,44.1348404 39.7381056,39.7381056 C44.1347494,35.3413709 46.5561224,29.4957587 46.5561224,23.2780612 C46.5561224,17.0603638 44.1348404,11.2146606 39.7381056,6.81801683 Z M23.2780612,45.0859674 C11.253124,45.0859674 1.47015505,35.3029984 1.47015505,23.2780612 C1.47015505,11.253124 11.253124,1.47015505 23.2780612,1.47015505 C35.3029984,1.47015505 45.0859674,11.253124 45.0859674,23.2780612 C45.0859674,35.3029984 35.3029984,45.0859674 23.2780612,45.0859674 Z" id="Shape"></path>
                            <path d="M39.6774554,14.7662017 C39.4562228,14.5748852 39.1356949,14.5422413 38.8704523,14.6652695 C38.4900924,14.8416736 38.1014579,14.9966182 37.7060036,15.1296486 C38.0981844,14.5946169 38.411438,14.0001171 38.6323977,13.3626983 C38.7235095,13.0998199 38.6781355,12.8011151 38.4897287,12.5964318 C38.2539474,12.340555 37.8784068,12.2867245 37.5837938,12.4545811 C36.5094567,13.0668123 35.3507367,13.4826349 34.1347307,13.6928649 C32.7746009,12.4444879 31.0248363,11.7615132 29.1660468,11.7615132 C25.3185288,11.7615132 22.1510757,14.7296479 21.83273,18.4962382 C21.0379116,18.3722098 19.482737,17.9287446 19.1109245,17.8071713 C16.4211264,16.8910522 13.9981166,15.2780463 12.1025004,13.1418295 C11.9901111,13.0151641 11.8420771,12.9209607 11.6755844,12.8904992 C11.3409623,12.8293943 11.0235259,12.9983421 10.8804022,13.2850441 C10.4092943,14.2291696 10.1703304,15.2444022 10.1703304,16.3025538 C10.1703304,17.7658891 10.6284354,19.1451142 11.4536245,20.2789195 C11.1964747,20.2306357 10.9227756,20.3209291 10.7432799,20.5417069 C10.6400744,20.6686451 10.5884262,20.8297729 10.5823339,20.993265 C10.579606,21.0678275 10.5771509,21.1426628 10.5771509,21.2180437 C10.5771509,23.2018619 11.4855409,25.0049115 12.9536955,26.1817266 C12.8523086,26.2503787 12.7668345,26.3451277 12.7079119,26.4619726 C12.6203464,26.6351032 12.6106169,26.8386953 12.6684483,27.0237377 C13.3096862,29.0750259 14.9027785,30.637202 16.8777765,31.2775306 C15.088912,32.3665074 13.0197106,32.9537329 10.9055898,32.9537329 C10.7189107,32.9537329 10.5267757,32.9489136 10.3346408,32.9395478 C9.96673833,32.9227258 9.63675363,33.1795119 9.5734664,33.5527792 C9.5218182,33.8573035 9.67912697,34.1618279 9.94509701,34.318682 C12.6473526,35.9125927 15.740425,36.7548766 18.8916925,36.7548766 C22.6526452,36.7548766 26.2350115,35.5836082 29.2219687,33.415475 C29.5904167,33.1479592 29.6310624,32.6133821 29.3091705,32.2913993 L29.3088977,32.2911265 C29.0495655,32.0317943 28.6416539,32.0038788 28.3445858,32.2190191 C25.6826122,34.1465516 22.4153181,35.2846306 18.8916016,35.2846306 C16.9166945,35.2846306 14.9668841,34.9238207 13.1398291,34.2289342 C15.3496991,33.8408452 17.4385413,32.8824438 19.1783946,31.4362942 C19.3886245,31.2615269 19.4992863,30.9850999 19.446365,30.7169476 C19.3787132,30.3744146 19.0851914,30.1322682 18.7455681,30.1227205 C16.9555216,30.0719816 15.357519,29.0829368 14.4993224,27.5712268 C14.908598,27.5515859 15.3182373,27.4955731 15.7214206,27.4038248 C16.0289456,27.3338087 16.2778208,27.0881161 16.31783,26.7752262 C16.3659319,26.3985944 16.1237855,26.0546065 15.7645214,25.9662226 C13.8443541,25.493387 12.4322124,23.9326658 12.1145941,22.0329577 C12.6774504,22.1648971 13.2624935,22.2231831 13.8465364,22.2053609 C14.2068917,22.1945402 14.5118707,21.9226597 14.5550624,21.553757 C14.5890702,21.263145 14.4347621,20.9817169 14.1849776,20.8294092 C12.5910669,19.8580958 11.6403036,18.1677084 11.6403036,16.3026447 C11.6403036,15.846722 11.696953,15.4008926 11.8093424,14.9691573 C13.7364203,16.874503 16.0752289,18.3264721 18.6369068,19.1990356 C18.6603668,19.2070375 21.1914013,19.9950362 22.1500755,19.9989462 C22.2126353,20.000492 22.5115219,20.0136769 22.5119766,20.0136769 C22.8200472,20.0261343 23.118752,19.8391823 23.2351423,19.5293841 C23.2686045,19.4404546 23.2807891,19.3447963 23.2785159,19.2498655 C23.2775156,19.2070375 23.2764245,19.1642095 23.2764245,19.1211087 C23.2764245,15.8737282 25.9183935,13.2317592 29.1658649,13.2317592 C30.7559565,13.2317592 32.246389,13.8566297 33.3630085,14.9910714 C33.5245909,15.1553818 33.7523704,15.2363094 33.9806955,15.2046658 C34.728776,15.1009148 35.4588523,14.9296028 36.1663781,14.6925485 C35.7897463,15.1057341 35.3457355,15.4597243 34.8477123,15.7386064 C34.511999,15.9265585 34.3696027,16.3349248 34.5278208,16.6856415 L34.5386415,16.709647 C34.6681257,16.9962582 34.9651938,17.1683885 35.2784474,17.1388363 C35.8864958,17.080823 36.4861787,16.9807092 37.0745862,16.8395859 C36.5540124,17.3764362 35.9816085,17.8640934 35.360648,18.2991022 C35.1580561,18.4410438 35.0415749,18.6761886 35.0500314,18.9233361 L35.0515772,18.9698013 C35.0533049,19.0200855 35.0552144,19.0704607 35.0552144,19.1211087 L35.0552144,19.1875785 C35.0383014,23.3057949 33.4674869,27.0670203 30.9026265,29.9167642 C30.6405665,30.2078309 30.6569338,30.6548425 30.9339064,30.931815 C31.2350663,31.2329749 31.7268154,31.2183352 32.0118807,30.9016263 C34.893541,27.7001654 36.4878154,23.6108648 36.5250057,19.2715068 C37.8363971,18.2946466 38.9432871,17.1004639 39.8191242,15.7167832 C40.0118047,15.4126226 39.9577014,15.0086209 39.6774554,14.7662017 Z" id="Shape"></path>
                        </g>
                    </g>
                </g>
            </g>
        </g>
    </g>
</svg>