<?xml version="1.0" encoding="UTF-8"?>
<svg width="50px" height="50px" viewBox="0 0 50 50" version="1.1" xmlns="http://www.w3.org/2000/svg" xmlns:xlink="http://www.w3.org/1999/xlink">
    <!-- Generator: Sketch 49.3 (51167) - http://www.bohemiancoding.com/sketch -->
    <title>facebook (5)</title>
    <desc>Created with Sketch.</desc>
    <defs></defs>
    <g id="Page-1" stroke="none" stroke-width="1" fill="none" fill-rule="evenodd">
        <g id="Desktop-HD-Copy" transform="translate(-752.000000, -3282.000000)" fill="#FFFFFF" fill-rule="nonzero">
            <g id="Group" transform="translate(611.000000, 3210.000000)">
                <g id="facebook-(5)" transform="translate(141.000000, 72.000000)">
                    <path d="M42.5945419,7.30808967 C37.8818713,2.59532164 31.6159844,0 24.9513645,0 C18.3256335,0 11.9931774,2.62300195 7.30808967,7.30808967 C2.5954191,12.0207602 9.74658869e-05,18.2866472 9.74658869e-05,24.9512671 C9.74658869e-05,30.1467836 1.58167641,35.1266082 4.57378168,39.3525341 C7.4997076,43.4848928 11.5451267,46.5962963 16.2726121,48.3503899 C16.5901559,48.4682261 16.9573099,48.3721248 17.1758285,48.0869396 C17.2841131,47.9454191 17.3346979,47.7678363 17.3346979,47.5896686 L17.3346979,33.3559454 C17.3346979,32.9207602 16.9818713,32.5680312 16.5467836,32.5680312 L9.98070175,32.5680312 L9.98070175,26.7898635 L16.5467836,26.7898635 C16.9819688,26.7898635 17.3346979,26.437037 17.3346979,26.0019493 L17.3346979,24.9512671 C17.3346979,18.0955166 23.8394737,12.0816764 31.2548733,12.0816764 L34.6692982,12.0816764 L34.6692982,17.8598441 L31.2548733,17.8598441 C29.0312865,17.8598441 27.0093567,18.4999025 25.5615984,19.6618908 C23.9596491,20.9476608 23.1128655,22.7767057 23.1128655,24.9512671 L23.1128655,26.0018519 C23.1128655,26.437037 23.465692,26.7897661 23.9007797,26.7897661 L27.0072125,26.7897661 C27.4423977,26.7897661 27.7951267,26.4369396 27.7951267,26.0018519 C27.7951267,25.5666667 27.4423002,25.2139376 27.0072125,25.2139376 L24.688694,25.2139376 L24.688694,24.9512671 C24.688694,20.8803119 28.2258285,19.43577 31.2547758,19.43577 L35.457115,19.43577 C35.8923002,19.43577 36.2450292,19.0829435 36.2450292,18.6478558 L36.2450292,11.2937622 C36.2450292,10.858577 35.8922027,10.505848 35.457115,10.505848 L31.2547758,10.505848 C27.4031189,10.505848 23.4991228,12.0380117 20.5437622,14.7094542 C17.4580897,17.4988304 15.7586745,21.1360624 15.7586745,24.9513645 L15.7586745,25.2140351 L9.19259259,25.2140351 C8.75740741,25.2140351 8.40467836,25.5668616 8.40467836,26.0019493 L8.40467836,33.3560429 C8.40467836,33.7912281 8.75750487,34.1439571 9.19259259,34.1439571 L15.7586745,34.1439571 L15.7586745,46.4488304 C7.23021442,42.7949318 1.57592593,34.2969786 1.57592593,24.9512671 C1.57592593,12.0619883 12.0620858,1.57582846 24.9511696,1.57582846 C37.8262183,1.57582846 48.3267057,12.0762183 48.3267057,24.9513645 C48.3267057,37.8405458 37.8405458,48.3266082 24.9512671,48.3266082 C24.8650097,48.3266082 24.7775828,48.3261209 24.6885965,48.3249513 L24.6885965,34.1438596 L35.457115,34.1438596 C35.8923002,34.1438596 36.2450292,33.7910331 36.2450292,33.3559454 L36.2450292,26.0018519 C36.2450292,25.5666667 35.8922027,25.2139376 35.457115,25.2139376 L30.8453216,25.2139376 C30.4101365,25.2139376 30.0574074,25.5667641 30.0574074,26.0018519 C30.0574074,26.437037 30.4102339,26.7897661 30.8453216,26.7897661 L34.6692008,26.7897661 L34.6692008,32.5679337 L23.9007797,32.5679337 C23.4655945,32.5679337 23.1128655,32.9207602 23.1128655,33.355848 L23.1128655,49.0904483 C23.1128655,49.5119883 23.4450292,49.8595517 23.8661793,49.8776803 C24.2565302,49.894347 24.6115984,49.9025341 24.951462,49.9025341 C31.6160819,49.9025341 37.8819688,47.3072125 42.5946394,42.5944444 C47.2797271,37.9092593 49.902729,31.5769006 49.902729,24.9510721 C49.9026316,18.2866472 47.3072125,12.0207602 42.5945419,7.30808967 Z" id="Shape"></path>
                </g>
            </g>
        </g>
    </g>
</svg>